{
    "KPlugin": {
        "Description": "LaTeX syntax for unicode symbols",
        "Description[az]": "Unicode simvollar üçün LaTeX sintaksisi",
        "Description[bg]": "Синтаксис на LaTeX за уникод символи",
        "Description[ca@valencia]": "Sintaxi de LaTeX per a símbols unicode",
        "Description[ca]": "Sintaxi de LaTeX per a símbols unicode",
        "Description[de]": "LaTeX-Syntax für Unicode-Zeichen",
        "Description[el]": "Σύνταξη του LaTeX για σύμβολα unicode",
        "Description[en_GB]": "LaTeX syntax for unicode symbols",
        "Description[eo]": "LaTeX-sintakso por unikodaj simboloj",
        "Description[es]": "Sintaxis de LaTeX para símbolos Unicode",
        "Description[eu]": "Unicode ikurretarako LaTeX-en sintaxia",
        "Description[fi]": "Unicode-merkkien LaTeX-syntaksi",
        "Description[fr]": "Syntaxe LaTeX pour les symboles Unicode",
        "Description[hu]": "LaTeX szintaxis Unicode szimbólumokhoz",
        "Description[ia]": "Syntaxe de LaTeX per symbolos de unicode",
        "Description[ie]": "Sintaxe LaTeX por caracteres de unicode",
        "Description[it]": "Sintassi LaTeX per i simboli unicode",
        "Description[ka]": "LaTeX -ის სინტაქსი უნიკოდის სიმბოლოებისთვის",
        "Description[ko]": "유니코드 기호용 LaTeX 문법",
        "Description[nl]": "LaTeX syntaxis voor unicode symbolen",
        "Description[pl]": "Składnia LaTeX dla symboli unikodu",
        "Description[pt]": "Sintaxe de LaTeX para os símbolos em Unicode",
        "Description[ru]": "Синтаксис LaTeX для символов Юникода",
        "Description[sk]": "LaTeX syntax pre znaky unicode",
        "Description[sl]": "LaTeXova sintaksa simbolov unicode",
        "Description[sv]": "Latex-syntax för Unicode-symboler",
        "Description[tr]": "Unicode semboller için LaTeX sözdizimi",
        "Description[uk]": "Синтаксис LaTeX для символів Unicode",
        "Description[vi]": "Cú pháp LaTeX cho các kí hiệu unicode",
        "Description[x-test]": "xxLaTeX syntax for unicode symbolsxx",
        "Description[zh_CN]": "Unicode 符号的 LaTeX 语法",
        "Name": "LaTeX completion",
        "Name[ar]": "إكمال لاتخ",
        "Name[az]": "LaTeX tamamlama",
        "Name[bg]": "Завършване на думи за LaTeX",
        "Name[ca@valencia]": "Compleció de LaTeX",
        "Name[ca]": "Compleció de LaTeX",
        "Name[cs]": "Doplňování LaTeXu",
        "Name[de]": "LaTeX-Vervollständigung",
        "Name[el]": "Ολοκλήρωση LaTeX",
        "Name[en_GB]": "LaTeX completion",
        "Name[eo]": "LaTeX-kompletigo",
        "Name[es]": "Terminación de LaTeX",
        "Name[eu]": "LaTeX osatzea",
        "Name[fi]": "LaTeX-täydennys",
        "Name[fr]": "Complètement LaTeX",
        "Name[hu]": "LaTeX kiegészítés",
        "Name[ia]": "Completion de LaTeX",
        "Name[ie]": "Completion de LaTeX",
        "Name[it]": "Completamento LaTeX",
        "Name[ka]": "LaTeX -ის დაბრუნება",
        "Name[ko]": "LaTeX 자동 완성",
        "Name[nl]": "LaTeX-aanvulling",
        "Name[pl]": "Uzupełnianie LaTeX",
        "Name[pt]": "Completação de LaTeX",
        "Name[ru]": "Автодополнение для LaTeX",
        "Name[sk]": "Dokončovanie LaTeX",
        "Name[sl]": "Kompletiranje LaTeXa",
        "Name[sv]": "Latex-komplettering",
        "Name[tr]": "LaTeX tamamlama",
        "Name[uk]": "Доповнення LaTeX",
        "Name[vi]": "Hoàn tất LaTeX",
        "Name[x-test]": "xxLaTeX completionxx",
        "Name[zh_CN]": "LaTeX 代码补全",
        "ServiceTypes": [
            "KTextEditor/Plugin"
        ]
    }
}
