{
    "KPlugin": {
        "Description": "Record and play keyboard macros (i.e., keyboard action sequences)",
        "Description[bg]": "Записване и възпроизвеждане на макроси на клавиатурата (т.е. последователности от действия на клавиатурата)",
        "Description[ca@valencia]": "Grava i reproduïx macros de teclat (és a dir, una seqüència d'acció de teclat)",
        "Description[ca]": "Enregistra i reprodueix macros de teclat (és a dir, una seqüència d'acció de teclat)",
        "Description[de]": "Tastaturmakros (also Tastenfolgen) aufnehmen und wiedergeben",
        "Description[el]": "Καταγραφή και αναπαραγωγή μακροεντολών πληκτρολογίου (δηλ. ακολουθίες ενεργειών του πληκτρολογίου)",
        "Description[en_GB]": "Record and play keyboard macros (i.e., keyboard action sequences)",
        "Description[eo]": "Registri kaj efektivigi klavarajn makroojn (t.e. klavarajn agsekvencojn)",
        "Description[es]": "Guardar y reproducir macros de teclado (es decir, secuencias de acciones de teclado)",
        "Description[eu]": "Grabatu eta ekin teklatuko makroak (adib. teklatuko ekintza sekuentziak)",
        "Description[fi]": "Nauhoita ja toista näppäinmakroja (ts. näppäimistön toimintasarjoja)",
        "Description[fr]": "Enregistrer et lire les macros de clavier (Par exemple, séquences d'actions au clavier)",
        "Description[ia]": "Registra e exeque macros de claviero (i.e. sequentias de action de claviero)",
        "Description[ie]": "Registrar e reproducter macros de tastatura (t.e. sequenties de tastes)",
        "Description[it]": "Registra ed esegui le macro da tastiera (cioè una sequenza di azioni da tastiera)",
        "Description[nl]": "Neem toetsenbordmacro's op en speel ze af (d.w.z., toetsenbordactiereeksen).",
        "Description[pl]": "Nagraj i odtwórz makra klawiaturowe (tj. naciśnięcia klawiszy na klawiaturze)",
        "Description[pt]": "Gravar e reproduzir macros do teclado (i.e., sequências de acções do teclado)",
        "Description[ru]": "Запись и воспроизведение клавиатурных макросов (последовательностей действий на клавиатуре)",
        "Description[sk]": "Nahrávanie a prehrávanie makier klávesnice (t. j. sekvencií akcií na klávesnici)",
        "Description[sl]": "Posnemi in poženi makroje tipkovnice (npr. zaporedja pritiskov tipk)",
        "Description[sv]": "Spela in och återge tangentbordsmakron (dvs. kommandosekvenser med tangentbordet)",
        "Description[tr]": "Klavye makroları kaydet ve oynat (örn. klavye eylem sıralaması)",
        "Description[uk]": "Запис і відтворення клавіатурних макросів (тобто послідовностей дій з клавіатури)",
        "Description[vi]": "Ghi và chạy vĩ lệnh bàn phím (chuỗi hành động bàn phím)",
        "Description[x-test]": "xxRecord and play keyboard macros (i.e., keyboard action sequences)xx",
        "Description[zh_CN]": "录制并播放键盘宏 (即击键序列)",
        "Name": "Keyboard Macros",
        "Name[bg]": "Клавиатурни макроси",
        "Name[ca@valencia]": "Macros de teclat",
        "Name[ca]": "Macros de teclat",
        "Name[cs]": "Makra klávesnice",
        "Name[de]": "Tastaturmakros",
        "Name[el]": "Μακροεντολές πληκτρολογίου",
        "Name[en_GB]": "Keyboard Macros",
        "Name[eo]": "Klavaraj makrooj",
        "Name[es]": "Macros de teclado",
        "Name[eu]": "Teklatuko makroak",
        "Name[fi]": "Näppäinmakrot",
        "Name[fr]": "Macros pour le clavier",
        "Name[ia]": "Macros de Claviero",
        "Name[ie]": "Macros de tastatura",
        "Name[it]": "Macro da tastiera",
        "Name[ka]": "კლავიატურის მაკროები",
        "Name[nl]": "Toetsenbordmacro's",
        "Name[pl]": "Makra klawiaturowe",
        "Name[pt]": "Macros do Teclado",
        "Name[ru]": "Макросы клавиатуры",
        "Name[sk]": "Makrá klávesnice",
        "Name[sl]": "Makroji tipkovnice",
        "Name[sv]": "Tangentbordsmakron",
        "Name[tr]": "Klavye Makroları",
        "Name[uk]": "Клавіатурні макроси",
        "Name[vi]": "Vĩ lệnh bàn phím",
        "Name[x-test]": "xxKeyboard Macrosxx",
        "Name[zh_CN]": "键盘宏"
    }
}
